…
``` r
merged_df %>% 
  filter(user == 998)
```

    ## # A tibble: 26 × 5
    ## # Groups:   user [1]
    ##     user week                emailsOpened amount target
    ##    <int> <dttm>                     <int>  <dbl>  <dbl>
    ##  1   998 2017-12-04 00:00:00            1      0      0
    ##  2   998 2017-12-11 00:00:00            3      0      0
    ##  3   998 2017-12-18 00:00:00            3      0      0
    ##  4   998 2017-12-25 00:00:00            0      0      0
    ##  5   998 2018-01-01 00:00:00            3      0      0
    ##  6   998 2018-01-08 00:00:00            3     50      0
    ##  7   998 2018-01-15 00:00:00            2      0     50
    ##  8   998 2018-01-22 00:00:00            3      0      0
    ##  9   998 2018-01-29 00:00:00            2      0      0
    ## 10   998 2018-02-05 00:00:00            3      0      0
    ## # … with 16 more rows
    ## # ℹ Use `print(n = ...)` to see more rows
…
先読みをしない移動平均による補完。先読みをしない移動平均は`zoo::rollmean()`で`align = "right"`を指定するか、`zoo::rollmeanr()`を使う。

ただし、この方法では移動平均の範囲を上回って連続するNAが出現すると結果がNaNとなる。`imputeTS::na_ma()`ではそのような場合に移動平均の範囲を広げるアルゴリズムが採用されている。しかし、この関数は先読みなしの移動平均に対応していない。

``` r
rand_unemp %>% 
  mutate(
    rmean = rollmeanr(UNRATE, 3, fill = NA, na.rm = TRUE),
    UNRATE = if_else(missing, rmean, UNRATE)
  ) %>% 
  select(!rmean) -> smooth_1
smooth_1
```

    ## # A tibble: 844 × 3
    ##    DATE       UNRATE missing
    ##    <date>      <dbl> <lgl>  
    ##  1 1948-01-01   3.4  FALSE  
    ##  2 1948-02-01   3.8  FALSE  
    ##  3 1948-03-01   4    FALSE  
    ##  4 1948-04-01   3.9  TRUE   
    ##  5 1948-05-01   3.5  FALSE  
    ##  6 1948-06-01   3.6  FALSE  
    ##  7 1948-07-01   3.6  FALSE  
    ##  8 1948-08-01   3.9  FALSE  
    ##  9 1948-09-01   3.75 TRUE   
    ## 10 1948-10-01   3.7  FALSE  
    ## # … with 834 more rows
    ## # ℹ Use `print(n = ...)` to see more rows
…
先読みをする移動平均。

``` r
rand_unemp %>% 
  mutate(
    rmean = rollmean(UNRATE, 3, fill = NA, na.rm = TRUE),
    UNRATE = if_else(missing, rmean, UNRATE)
  ) %>% 
  select(!rmean) -> smooth_2
smooth_2
```

    ## # A tibble: 844 × 3
    ##    DATE       UNRATE missing
    ##    <date>      <dbl> <lgl>  
    ##  1 1948-01-01   3.4  FALSE  
    ##  2 1948-02-01   3.8  FALSE  
    ##  3 1948-03-01   4    FALSE  
    ##  4 1948-04-01   3.75 TRUE   
    ##  5 1948-05-01   3.5  FALSE  
    ##  6 1948-06-01   3.6  FALSE  
    ##  7 1948-07-01   3.6  FALSE  
    ##  8 1948-08-01   3.9  FALSE  
    ##  9 1948-09-01   3.8  TRUE   
    ## 10 1948-10-01   3.7  FALSE  
    ## # … with 834 more rows
    ## # ℹ Use `print(n = ...)` to see more rows
…
