…
データフレームにする場合、`time()`で抽出したタイムスタンプに`lubiridate::date_decimal()`を使うとPOSIXctでの表現を得られる。

``` r
EuStockMarkets %>% 
  as_tibble() %>% 
  mutate(Time = time(EuStockMarkets) %>% as.numeric() %>% date_decimal()) -> df
df
```

    ## # A tibble: 1,860 × 5
    ##      DAX   SMI   CAC  FTSE Time               
    ##    <dbl> <dbl> <dbl> <dbl> <dttm>             
    ##  1 1629. 1678. 1773. 2444. 1991-07-01 02:18:27
    ##  2 1614. 1688. 1750. 2460. 1991-07-02 12:00:00
    ##  3 1607. 1679. 1718  2448. 1991-07-03 21:41:32
    ##  4 1621. 1684. 1708. 2470. 1991-07-05 07:23:04
    ##  5 1618. 1687. 1723. 2485. 1991-07-06 17:04:36
    ##  6 1611. 1672. 1714. 2467. 1991-07-08 02:46:09
    ##  7 1631. 1683. 1734. 2488. 1991-07-09 12:27:41
    ##  8 1640. 1704. 1757. 2508. 1991-07-10 22:09:13
    ##  9 1635. 1698. 1754  2510. 1991-07-12 07:50:46
    ## 10 1646. 1716. 1754. 2497. 1991-07-13 17:32:18
    ## # … with 1,850 more rows
…
    ## # A tibble: 1 × 2
    ##   start               end                
    ##   <dttm>              <dttm>             
    ## 1 1991-07-01 02:18:27 1998-08-24 20:18:27

抽出。`window()`とは結果が若干異なる。`window(EuStockMarkets, start = 1997, end = 1998)`だと末尾は`1998.000`になり、1998年の最初のレコードが含まれるため。

``` r
df %>% 
  filter(Time >= "1997/01/01", Time < "1998/01/01")
```

    ## # A tibble: 260 × 5
    ##      DAX   SMI   CAC  FTSE Time               
    ##    <dbl> <dbl> <dbl> <dbl> <dttm>             
    ##  1 2844. 3870. 2290. 4092. 1997-01-01 00:00:00
    ##  2 2844. 3870. 2290. 4092. 1997-01-02 09:41:32
    ##  3 2844. 3870. 2304. 4092. 1997-01-03 19:23:04
    ##  4 2859. 3922. 2307  4091  1997-01-05 05:04:36
    ##  5 2880. 3948. 2319. 4116. 1997-01-06 14:46:09
    ##  6 2880. 3942. 2316. 4118. 1997-01-08 00:27:41
    ##  7 2880. 3942. 2316. 4118. 1997-01-09 10:09:13
    ##  8 2821. 3942. 2257  4057. 1997-01-10 19:50:46
    ##  9 2863. 3940. 2283. 4090. 1997-01-12 05:32:18
    ## 10 2890. 3924. 2307. 4106. 1997-01-13 15:13:50
    ## # … with 250 more rows
…
